{
    "encarts" : [ 
        {
            "nom" : "Moteur de recherche",
            "icone" : "search",
            "couleur" : "grey",
            "lien" : "https://www.qwant.com/?l=fr",
            "liste" : [ 
                {
                    "intitule" : "Qwant",
                    "lien" : "https://www.qwant.com/?l=fr"
                },
                {
                    "intitule" : "Google",
                    "lien" : "https://www.google.fr"
                },
                {
                    "intitule" : "Ecosia",
                    "lien" : "https://www.ecosia.org/"
                }
            ]
        },
        {
            "nom" : "Navigateur",
            "icone" : "desktop_windows",
            "couleur" : "green",
            "lien" : "https://www.mozilla.org/fr/",
            "liste" : [ 
                {
                    "intitule" : "Mozilla Firefox",
                    "lien" : "https://www.mozilla.org/fr/"
                },
                {
                    "intitule" : "Google Chrome",
                    "lien" : "https://www.google.com/intl/fr_fr/chrome/"
                }
            ]
        },        
        {
            "nom" : "IDE",
            "icone" : "settings",
            "couleur" : "red",
            "lien" : "https://code.visualstudio.com/",
            "liste" : [ 
                {
                    "intitule" : "Visual Studio Code",
                    "lien" : "https://code.visualstudio.com/"  
                }, 
                {
                    "intitule" : "IntelliJ",
                    "lien" : "https://www.jetbrains.com/idea/"
                }, 
                {
                    "intitule" : "Eclipse",
                    "lien" : "https://www.eclipse.org/downloads/"
                }
            ]
        },
        {
            "nom" : "Cloud",
            "icone" : "cloud_queue",
            "couleur" : "blue",
            "lien" : "https://aws.amazon.com/fr/",
            "liste" : [ 
                {
                    "intitule" : "Amazon Web Service",
                    "lien" : "https://aws.amazon.com/fr/"
                }, 
                {
                    "intitule" : "Google Cloud Platform",
                    "lien" : "https://cloud.google.com/?hl=fr"
                }
            ]
        },
        {
            "nom" : "Dépôt GIT",
            "icone" : "group",
            "couleur" : "brown",
            "lien" : "https://gitlab.com/",
            "liste" : [ 
                {
                    "intitule" : "Gitlab",
                    "lien" : "https://gitlab.com/"
                }, 
                {
                    "intitule" : "Github",
                    "lien" : "https://github.com/"
                }
            ]
        }
    ]
}